Division,WeightClassKg,Place,Name,Team,BodyweightKg,Best3SquatKg,Best3BenchKg,Best3DeadliftKg,TotalKg,Equipment,Event,Sex
Boys,51.71,1,Santiago Centeno,Bay City,51.71,117.93,77.11,140.61,335.66,Single-ply,SBD,M
Boys,51.71,2,Jaden Williams,Cuero,50.17,70.31,52.16,102.06,224.53,Single-ply,SBD,M
Boys,51.71,NS,Sonny Lane,Cuero,,,,,,Single-ply,SBD,M
Boys,51.71,DQ,Jacob Villarreal,Gonzales,51.71,115.67,,113.4,,Single-ply,SBD,M
Boys,51.71,DQ,Caleb Kubesch,Schulenburg,46.27,,34.02,68.04,,Single-ply,SBD,M
Boys,55.79,1,Johnny Jimenez,Stockdale,55.34,136.08,74.84,158.76,369.68,Single-ply,SBD,M
Boys,55.79,2,Cody Faust,Yoakum,53.07,122.47,74.84,127.01,324.32,Single-ply,SBD,M
Boys,55.79,3,Zachary Baker,Hallettsville,53.52,111.13,54.43,113.4,278.96,Single-ply,SBD,M
Boys,55.79,4,Michael Foster,Edna,55.79,88.45,61.23,111.13,260.82,Single-ply,SBD,M
Boys,55.79,5,Seth Paten,Schulenburg,55.79,79.38,49.9,106.59,235.87,Single-ply,SBD,M
Boys,55.79,6,Kolbe Kutac,Schulenburg,53.98,92.99,45.36,95.25,233.6,Single-ply,SBD,M
Boys,55.79,NS,Kaleb Wolfe,Bay City,,,,,,Single-ply,SBD,M
Boys,59.87,1,Alex Navas-Gonzales,Hallettsville,57.61,154.22,99.79,154.22,408.23,Single-ply,SBD,M
Boys,59.87,2,Tyrese Martinez,Stockdale,57.15,136.08,86.18,165.56,387.82,Single-ply,SBD,M
Boys,59.87,3,Lamar Turner,Edna,56.25,124.74,68.04,147.42,340.19,Single-ply,SBD,M
Boys,59.87,4,Gabriel García,Yoakum,57.15,127.01,68.04,120.2,315.25,Single-ply,SBD,M
Boys,59.87,NS,David Nunez,Edna,,,,,,Single-ply,SBD,M
Boys,59.87,NS,Jose Ramos,Bay City,,,,,,Single-ply,SBD,M
Boys,59.87,NS,Jarius Eldridge,Cuero,,,,,,Single-ply,SBD,M
Boys,59.87,DQ,Bo Zak,Hallettsville,59.87,154.22,92.99,,,Single-ply,SBD,M
Boys,67.13,1,Alex Ortiz,Gonzales,65.32,161.03,106.59,158.76,426.38,Single-ply,SBD,M
Boys,67.13,2,Michael Chomour,Yoakum,63.96,151.95,97.52,161.03,410.5,Single-ply,SBD,M
Boys,67.13,3,Jacob Baker,Hallettsville,60.78,142.88,88.45,140.61,371.95,Single-ply,SBD,M
Boys,67.13,4,Steven Sangster,Yoakum,67.13,133.81,83.91,142.88,360.61,Single-ply,SBD,M
Boys,67.13,5,Dalton Stuart,Stockdale,63.96,136.08,79.38,140.61,356.07,Single-ply,SBD,M
Boys,67.13,6,Denver Evans,Yoakum,61.69,124.74,63.5,142.88,331.12,Single-ply,SBD,M
Boys,67.13,7,Travis Decker,Gonzales,64.86,102.06,61.23,113.4,276.69,Single-ply,SBD,M
Boys,67.13,NS,Triston Barefield,Cuero,,,,,,Single-ply,SBD,M
Boys,74.84,1,Sam Fisher,Bay City,71.67,197.31,111.13,235.87,544.31,Single-ply,SBD,M
Boys,74.84,2,Abraham Ramirez #2,Cuero,72.39,195.04,133.81,199.58,528.44,Single-ply,SBD,M
Boys,74.84,3,Lawrence Smith,Bay City,72.12,208.65,86.18,181.44,476.27,Single-ply,SBD,M
Boys,74.84,4,Trace McAfee,Hallettsville,73.03,158.76,120.2,154.22,433.18,Single-ply,SBD,M
Boys,74.84,5,Chris Madrigal,Beeville Jones,73.48,142.88,102.06,174.63,419.57,Single-ply,SBD,M
Boys,74.84,6,Tony Renfro,Stockdale,72.12,156.49,86.18,156.49,399.16,Single-ply,SBD,M
Boys,74.84,7,Elex Martinez,Cuero,71.67,156.49,83.91,156.49,396.89,Single-ply,SBD,M
Boys,74.84,8,Nick Galvan,Beeville Jones,73.3,131.54,86.18,172.37,390.09,Single-ply,SBD,M
Boys,74.84,9,Logan Shows,Yoakum,74.84,149.69,92.99,142.88,385.55,Single-ply,SBD,M
Boys,74.84,10,Derrick Carroll,Beeville Jones,68.49,133.81,81.65,165.56,381.02,Single-ply,SBD,M
Boys,74.84,NS,Alex Martinez,Beeville Jones,,,,,,Single-ply,SBD,M
Boys,74.84,NS,Dawson Dittrich,Schulenburg,,,,,,Single-ply,SBD,M
Boys,74.84,DQ,Dylan Tomek,Hallettsville,73.94,181.44,,181.44,,Single-ply,SBD,M
Boys,82.1,1,Raymond Gonzales,Bay City,78.93,213.19,122.47,208.65,544.31,Single-ply,SBD,M
Boys,82.1,2,Kristopher Martin,Bay City,80.47,174.63,117.93,210.92,503.49,Single-ply,SBD,M
Boys,82.1,3,Jorge Carli,Bay City,77.47,197.31,108.86,181.44,487.61,Single-ply,SBD,M
Boys,82.1,4,Trent Schauer,Gonzales,82.1,163.29,111.13,185.97,460.4,Single-ply,SBD,M
Boys,82.1,5,Kyler McBlane,Stockdale,80.29,158.76,88.45,176.9,424.11,Single-ply,SBD,M
Boys,82.1,6,Patrick Prieto,Beeville Jones,76.66,145.15,79.38,156.49,381.02,Single-ply,SBD,M
Boys,82.1,7,Jake Salem,Schulenburg,78.93,133.81,83.91,113.4,331.12,Single-ply,SBD,M
Boys,82.1,8,Hector Andres,Edna,77.11,106.59,68.04,113.4,288.03,Single-ply,SBD,M
Boys,82.1,9,Zachariah Segovia,Beeville Jones,75.84,79.38,52.16,108.86,240.4,Single-ply,SBD,M
Boys,89.81,1,Adrian Ruiz,Bay City,88.18,199.58,163.29,170.1,532.97,Single-ply,SBD,M
Boys,89.81,2,Ricardo Camarillo,Yoakum,87.09,188.24,129.27,188.24,505.76,Single-ply,SBD,M
Boys,89.81,3,Connor McLaughlin,Stockdale,83.01,181.44,120.2,183.7,485.34,Single-ply,SBD,M
Boys,89.81,4,Hayden Henry,Hallettsville,85.28,188.24,108.86,167.83,464.93,Single-ply,SBD,M
Boys,89.81,5,John Rodriguez,Cuero,88.99,151.95,83.91,129.27,365.14,Single-ply,SBD,M
Boys,89.81,NS,Michel Cruz,Schulenburg,,,,,,Single-ply,SBD,M
Boys,89.81,DQ,Ryan Gasch,Yoakum,83.46,,88.45,102.06,,Single-ply,SBD,M
Boys,99.79,1,Richy Ortiz,Bay City,96.07,240.4,142.88,238.14,621.42,Single-ply,SBD,M
Boys,99.79,2,Aaron Rodriguez,Beeville Jones,98.43,240.4,151.95,197.31,589.67,Single-ply,SBD,M
Boys,99.79,3,Kaden Hardt,Hallettsville,93.44,217.72,149.69,215.46,582.87,Single-ply,SBD,M
Boys,99.79,4,Aaron Puga,Beeville Jones,94.35,226.8,122.47,215.46,564.72,Single-ply,SBD,M
Boys,99.79,5,Clayton Mays,Schulenburg,96.16,179.17,120.2,188.24,487.61,Single-ply,SBD,M
Boys,99.79,6,Elijah Ellis,Bay City,92.17,183.7,92.99,192.78,469.47,Single-ply,SBD,M
Boys,99.79,7,Tristan Caballero,Yoakum,99.34,172.37,136.08,154.22,462.66,Single-ply,SBD,M
Boys,99.79,8,Caleb Valchar,Schulenburg,97.52,151.95,106.59,170.1,428.64,Single-ply,SBD,M
Boys,99.79,9,Colton Irwin,Stockdale,92.08,147.42,81.65,149.69,378.75,Single-ply,SBD,M
Boys,99.79,10,Nick Searcy,Cuero,93.71,149.69,79.38,106.59,335.66,Single-ply,SBD,M
Boys,109.77,11,Micheal Carbajal,Beeville Jones,99.88,133.81,61.23,131.54,326.59,Single-ply,SBD,M
Boys,99.79,12,Ryan Hessong,Edna,98.61,117.93,68.04,136.08,322.05,Single-ply,SBD,M
Boys,109.77,1,Adrian Puga,Beeville Jones,103.87,217.72,136.08,185.97,539.77,Single-ply,SBD,M
Boys,109.77,2,Prince Flye,Bay City,104.51,188.24,115.67,197.31,501.22,Single-ply,SBD,M
Boys,109.77,3,Will Dowell,Hallettsville,102.06,217.72,108.86,154.22,480.81,Single-ply,SBD,M
Boys,109.77,4,Luke MacLennan,Bay City,105.6,170.1,102.06,174.63,446.79,Single-ply,SBD,M
Boys,109.77,5,Efrain Guerra,Edna,102.97,136.08,102.06,147.42,385.55,Single-ply,SBD,M
Boys,109.77,6,John Tillman,Schulenburg,108.41,122.47,108.86,147.42,378.75,Single-ply,SBD,M
Boys,109.77,7,John Castilla,Beeville Jones,107.32,111.13,74.84,133.81,319.78,Single-ply,SBD,M
Boys,124.74,1,Josh Carroll,Stockdale,118.39,226.8,163.29,240.4,630.49,Single-ply,SBD,M
Boys,124.74,2,Dillon Steffek,Hallettsville,112.94,260.82,151.95,213.19,625.96,Single-ply,SBD,M
Boys,124.74,3,Michael Diaz,Stockdale,123.38,226.8,142.88,192.78,562.45,Single-ply,SBD,M
Boys,124.74,4,Dylan Kallus,Edna,123.83,226.8,106.59,204.12,537.51,Single-ply,SBD,M
Boys,124.74,5,Andrew Munoz,Cuero,123.47,226.8,111.13,192.78,530.7,Single-ply,SBD,M
Boys,124.74,6,Rudy Olide,Bay City,116.12,204.12,104.33,181.44,489.88,Single-ply,SBD,M
Boys,124.74,7,Cameron Rodriguez,Bay City,120.47,174.63,92.99,183.7,451.32,Single-ply,SBD,M
Boys,124.74,8,Christian Tovar,Schulenburg,117.03,142.88,74.84,147.42,365.14,Single-ply,SBD,M
Boys,124.74+,1,Martin Hidrago,Stockdale,131.09,238.14,133.81,192.78,564.72,Single-ply,SBD,M
Boys,124.74+,2,Jacob Perez,Cuero,146.15,183.7,115.67,201.85,501.22,Single-ply,SBD,M
Boys,124.74+,3,Albert Briones,Beeville Jones,129.46,138.35,70.31,151.95,360.61,Single-ply,SBD,M
Boys,124.74+,4,Brayson Florus,Schulenburg,139.71,113.4,70.31,124.74,308.44,Single-ply,SBD,M
Boys,124.74+,DQ,Wyatt Neuman,Edna,136.53,192.78,,174.63,,Single-ply,SBD,M
