Name,WeightClassKg,Division,Sex,Best3SquatKg,Best3BenchKg,Best3DeadliftKg,TotalKg,Event,Equipment,Place
Susan Carter,44,Open,F,81.65,38.56,106.59,226.8,SBD,Single-ply,1
B. Wright,44,Open,F,74.84,43.09,74.84,192.78,SBD,Single-ply,2
S. Mikels,48,Open,F,86.18,43.09,95.25,224.53,SBD,Single-ply,1
Sharon Meyer,48,Open,F,68.04,34.02,104.33,206.38,SBD,Single-ply,2
V. Perez,48,Open,F,54.43,40.82,104.33,199.58,SBD,Single-ply,3
Debbie Wymer,52,Open,F,79.38,38.56,108.86,226.8,SBD,Single-ply,1
M. Culver,52,Open,F,81.65,34.02,104.33,219.99,SBD,Single-ply,2
R. Mattingly,52,Open,F,68.04,38.56,111.13,217.72,SBD,Single-ply,3
G. Graham,52,Open,F,61.24,36.29,99.79,197.31,SBD,Single-ply,4
C. Howell,52,Open,F,68.04,34.02,90.72,192.78,SBD,Single-ply,5
J. Piper,52,Open,F,54.43,31.75,92.99,179.17,SBD,Single-ply,6
Chris Hickman,56,Open,F,124.74,58.97,149.69,333.39,SBD,Single-ply,1
Cindy Dickey,56,Open,F,86.18,45.36,115.67,247.21,SBD,Single-ply,2
Pam Stevenson,60,Open,F,111.13,49.9,136.08,297.1,SBD,Single-ply,1
R. Tanny,60,Open,F,108.86,47.63,124.74,281.23,SBD,Single-ply,2
T. Searle-James,60,Open,F,81.65,52.16,117.93,251.74,SBD,Single-ply,3
C. Cavanaugh,60,Open,F,81.65,52.16,117.93,251.74,SBD,Single-ply,4
C. Stoker,60,Open,F,74.84,36.29,106.59,217.72,SBD,Single-ply,5
Mike Abernathy,56,Open,M,154.22,81.65,165.56,401.43,SBD,Single-ply,1
B. Lucas,56,Open,M,136.08,86.18,158.76,381.02,SBD,Single-ply,2
C. Sargent,60,Open,M,140.61,97.52,181.44,419.57,SBD,Single-ply,1
D. Davis,60,Open,M,124.74,92.99,147.42,365.14,SBD,Single-ply,2
D. Sprague,67.5,Open,M,217.72,138.35,217.72,573.8,SBD,Single-ply,1
Daryl Engle,67.5,Open,M,151.95,131.54,204.12,487.61,SBD,Single-ply,2
R. Graham,67.5,Open,M,151.95,127.01,195.04,474,SBD,Single-ply,3
F. McFann,67.5,Open,M,185.97,99.79,181.44,467.2,SBD,Single-ply,4
L. Phillips,67.5,Open,M,158.76,117.93,163.29,439.99,SBD,Single-ply,5
M. Hobbs,67.5,Open,M,127.01,92.99,170.1,390.09,SBD,Single-ply,6
G. Neff,75,Open,M,192.78,120.2,215.46,528.44,SBD,Single-ply,1
L. Dickey,75,Open,M,195.04,111.13,206.38,512.56,SBD,Single-ply,2
T. Briggs,75,Open,M,172.37,127.01,181.44,480.81,SBD,Single-ply,3
J. Ploss,75,Open,M,156.49,122.47,181.44,460.4,SBD,Single-ply,4
T. Kirkpatrick,75,Open,M,147.42,108.86,179.17,435.45,SBD,Single-ply,5
R. Auxier,82.5,Open,M,213.19,149.69,247.21,610.08,SBD,Single-ply,1
Tony Pacifico,82.5,Open,M,249.48,131.54,226.8,607.81,SBD,Single-ply,2
Herb Glossbrenner,82.5,Open,M,215.46,133.81,226.8,576.06,SBD,Single-ply,3
J. Worman,82.5,Open,M,192.78,158.76,192.78,544.31,SBD,Single-ply,4
R. Watkins,82.5,Open,M,204.12,122.47,208.65,535.24,SBD,Single-ply,5
M. Dakoski,82.5,Open,M,183.71,115.67,226.8,526.17,SBD,Single-ply,6
Terry Shrider,82.5,Open,M,197.31,115.67,210.92,523.9,SBD,Single-ply,7
D. Shanner,82.5,Open,M,181.44,99.79,215.46,496.68,SBD,Single-ply,8
R. Gammon,82.5,Open,M,158.76,131.54,181.44,471.74,SBD,Single-ply,9
B. Sander,82.5,Open,M,158.76,131.54,181.44,471.74,SBD,Single-ply,10
J. White,82.5,Open,M,136.08,111.13,204.12,451.32,SBD,Single-ply,11
John Weddle,90,Open,M,238.14,149.69,238.14,625.96,SBD,Single-ply,1
M. Stahl,90,Open,M,231.33,154.22,231.33,616.89,SBD,Single-ply,2
B. Davis,90,Open,M,208.65,122.47,272.16,603.28,SBD,Single-ply,3
G. Trail,90,Open,M,226.8,142.88,215.46,585.13,SBD,Single-ply,4
M. Watkins,90,Open,M,215.46,163.29,197.31,576.06,SBD,Single-ply,5
T. Wood,90,Open,M,204.12,138.35,229.06,571.53,SBD,Single-ply,6
D. Zolle,90,Open,M,210.92,120.2,192.78,523.9,SBD,Single-ply,7
J. Stein,90,Open,M,197.31,122.47,197.31,517.1,SBD,Single-ply,8
M. Vankley,90,Open,M,161.03,127.01,199.58,487.61,SBD,Single-ply,9
T. Powell,90,Open,M,254.01,176.9,244.94,675.85,SBD,Single-ply,G
J. Connor,90,Open,M,235.87,127.01,247.21,610.08,SBD,Single-ply,G
Doug Dicke,100,Open,M,328.85,235.87,317.52,882.24,SBD,Single-ply,1
Gary Burch,100,Open,M,294.84,181.44,294.84,771.11,SBD,Single-ply,2
D. Brewer,100,Open,M,272.16,188.24,226.8,687.19,SBD,Single-ply,3
T. Burnside,100,Open,M,233.6,142.88,229.06,605.55,SBD,Single-ply,4
B. Dicke,100,Open,M,206.38,136.08,217.72,560.19,SBD,Single-ply,5
T. Brown,100,Open,M,192.78,136.08,226.8,555.65,SBD,Single-ply,6
V. Imhoff,100,Open,M,176.9,108.86,208.65,494.42,SBD,Single-ply,7
E. Lytle,100,Open,M,167.83,97.52,156.49,421.84,SBD,Single-ply,8
Jeff Burch,110,Open,M,308.44,199.58,303.91,811.93,SBD,Single-ply,1
Dave Dicke,110,Open,M,294.84,204.12,303.91,802.86,SBD,Single-ply,2
Lee Sprague,110,Open,M,254.01,195.04,290.3,739.36,SBD,Single-ply,3
L. Johnson,110,Open,M,240.4,142.88,249.48,632.76,SBD,Single-ply,4
W. Wadsworth,110,Open,M,195.04,136.08,238.14,569.26,SBD,Single-ply,5
T. Martin,110+,Open,M,331.12,213.19,292.57,836.88,SBD,Single-ply,1
Bob Jeffery,110+,Open,M,353.8,201.85,281.23,836.88,SBD,Single-ply,2
Randy Davis,110+,Open,M,281.23,167.83,301.64,750.7,SBD,Single-ply,3
Chuck Yelton,110+,Open,M,272.16,188.24,290.3,750.7,SBD,Single-ply,4
