Name,WeightClassKg,Division,Sex,Best3SquatKg,Best3BenchKg,Best3DeadliftKg,TotalKg,Event,Equipment,Place
Fred Toins,48,Open,M,,,,288.03,SBD,Single-ply,1
L. Carlson,48,Open,M,,,,244.94,SBD,Single-ply,2
J. Harris,48,Open,M,,,,219.99,SBD,Single-ply,3
A. Parker,48,Open,M,,,,199.58,SBD,Single-ply,4
S. Isbell,48,Open,M,,,,161.03,SBD,Single-ply,5
C. Thornton,52,Open,M,,,,306.18,SBD,Single-ply,1
J. Stevens,52,Open,M,,,,303.91,SBD,Single-ply,2
J. Wetmer,52,Open,M,,,,290.3,SBD,Single-ply,3
J. Carlin,52,Open,M,,,,256.28,SBD,Single-ply,4
L. Fields,52,Open,M,,,,256.28,SBD,Single-ply,5
J. Brown,52,Open,M,,,,208.65,SBD,Single-ply,6
Dan Savoie,56,Open,M,,,,430.91,SBD,Single-ply,1
L. Smith,56,Open,M,,,,383.29,SBD,Single-ply,2
D. Brown,56,Open,M,,,,374.21,SBD,Single-ply,3
T. Moffett,56,Open,M,,,,349.27,SBD,Single-ply,4
K. Haggadone,56,Open,M,,,,274.42,SBD,Single-ply,5
L. Bryant,56,Open,M,,,,258.55,SBD,Single-ply,6
P. Adrianson,56,Open,M,,,,256.28,SBD,Single-ply,7
M. Allgeyer,56,Open,M,,,,195.04,SBD,Single-ply,8
S. Allgeyer,60,Open,M,,,,417.31,SBD,Single-ply,1
D. Tomel,60,Open,M,,,,415.04,SBD,Single-ply,2
K. Myers,60,Open,M,,,,369.68,SBD,Single-ply,3
M. Hewelt,60,Open,M,,,,335.66,SBD,Single-ply,4
D. Boratynski,60,Open,M,,,,335.66,SBD,Single-ply,5
J. Dubay,60,Open,M,,,,238.14,SBD,Single-ply,6
L. Quass,67.5,Open,M,,,,458.13,SBD,Single-ply,1
N. Garner,67.5,Open,M,,,,437.72,SBD,Single-ply,2
R. Duford,67.5,Open,M,,,,437.72,SBD,Single-ply,3
T. Sandgre,67.5,Open,M,,,,435.45,SBD,Single-ply,4
P. Haley,67.5,Open,M,,,,394.63,SBD,Single-ply,5
D. Hutchinson,67.5,Open,M,,,,390.09,SBD,Single-ply,6
J. Blaine,67.5,Open,M,,,,390.09,SBD,Single-ply,7
T. Tanner,67.5,Open,M,,,,374.21,SBD,Single-ply,8
B. Mccoy,67.5,Open,M,,,,365.14,SBD,Single-ply,9
C. Cheeseman,67.5,Open,M,,,,365.14,SBD,Single-ply,10
A. Gomez,67.5,Open,M,,,,353.8,SBD,Single-ply,11
P. Sneed,67.5,Open,M,,,,349.27,SBD,Single-ply,12
N. Zelony,67.5,Open,M,,,,340.19,SBD,Single-ply,13
R. Bearss,67.5,Open,M,,,,337.93,SBD,Single-ply,14
D. Verriest,67.5,Open,M,,,,331.12,SBD,Single-ply,15
B. Fox,67.5,Open,M,,,,331.12,SBD,Single-ply,16
D. Reinert,67.5,Open,M,,,,312.98,SBD,Single-ply,17
D. Murphy,67.5,Open,M,,,,283.5,SBD,Single-ply,18
T. Rumsey,75,Open,M,,,,498.95,SBD,Single-ply,1
S. Foley,75,Open,M,,,,433.18,SBD,Single-ply,2
D. Knight,75,Open,M,,,,412.77,SBD,Single-ply,3
K. Mehalko,75,Open,M,,,,408.23,SBD,Single-ply,4
J. Shurlow,75,Open,M,,,,396.89,SBD,Single-ply,5
D. Kenney,75,Open,M,,,,383.29,SBD,Single-ply,6
B. Dempsey,75,Open,M,,,,362.87,SBD,Single-ply,7
J. Schmitigal,75,Open,M,,,,360.61,SBD,Single-ply,8
M. Spencer,75,Open,M,,,,358.34,SBD,Single-ply,9
T. Castleberry,75,Open,M,,,,340.19,SBD,Single-ply,10
M. Ozarkrski,75,Open,M,,,,294.84,SBD,Single-ply,11
M. Moore #10,75,Open,M,,,,247.21,SBD,Single-ply,13
B. Marks,75,Open,M,,,,272.16,SBD,Single-ply,12
K. Krzyzaniak,82.5,Open,M,,,,573.8,SBD,Single-ply,1
J. Gallan,82.5,Open,M,,,,553.38,SBD,Single-ply,2
Jerry Crockett,82.5,Open,M,,,,521.63,SBD,Single-ply,3
S. Johnson,82.5,Open,M,,,,508.02,SBD,Single-ply,4
R. Czajka,82.5,Open,M,,,,444.52,SBD,Single-ply,5
G. Martin,82.5,Open,M,,,,439.99,SBD,Single-ply,6
S. Floyd,82.5,Open,M,,,,433.18,SBD,Single-ply,7
C. Towner,82.5,Open,M,,,,426.38,SBD,Single-ply,8
A. Evans,82.5,Open,M,,,,415.04,SBD,Single-ply,9
L. Chapman,82.5,Open,M,,,,385.55,SBD,Single-ply,10
T. Foley,82.5,Open,M,,,,347,SBD,Single-ply,11
G. Clark,82.5,Open,M,,,,319.78,SBD,Single-ply,12
K. Echtinaw,90,Open,M,,,,523.9,SBD,Single-ply,1
S. Dipzinski,90,Open,M,,,,508.02,SBD,Single-ply,2
O. Roberts,90,Open,M,,,,471.74,SBD,Single-ply,3
L. Boyer,90,Open,M,,,,449.06,SBD,Single-ply,4
P. Sean Jr,90,Open,M,,,,446.79,SBD,Single-ply,5
S. Miller,90,Open,M,,,,415.04,SBD,Single-ply,6
G. Azzoli,90,Open,M,,,,392.36,SBD,Single-ply,7
Dave Douglass,100,Open,M,,,,589.67,SBD,Single-ply,1
C. Ceresa,100,Open,M,,,,494.42,SBD,Single-ply,2
K. Harris,100,Open,M,,,,458.13,SBD,Single-ply,3
E. Lett,100,Open,M,,,,449.06,SBD,Single-ply,4
B. Dye,100,Open,M,,,,446.79,SBD,Single-ply,5
J. Coleman,100,Open,M,,,,437.72,SBD,Single-ply,6
E. Freeman,100,Open,M,,,,437.72,SBD,Single-ply,7
J. Batterbee,100,Open,M,,,,437.72,SBD,Single-ply,8
M. Weber,100,Open,M,,,,385.55,SBD,Single-ply,9
N. Baty,110,Open,M,,,,614.62,SBD,Single-ply,1
A. Rose,110,Open,M,,,,548.85,SBD,Single-ply,2
M. Amico,110,Open,M,,,,369.68,SBD,Single-ply,3
M. Perry,110,Open,M,,,,344.73,SBD,Single-ply,4
S. Mays,110+,Open,M,,,,415.04,SBD,Single-ply,1
C. Shreye,110+,Open,M,,,,396.89,SBD,Single-ply,2
